{
  "project_info": {
    "project_number": "1052719745266",
    "firebase_url": "https://track-location-243918.firebaseio.com",
    "project_id": "track-location-243918",
    "storage_bucket": "track-location-243918.appspot.com"
  },
  "client": [
    {
      "client_info": {
        "mobilesdk_app_id": "1:1052719745266:android:84aec95c524d5a81",
        "android_client_info": {
          "package_name": "vn.com.nat.track_location_android"
        }
      },
      "oauth_client": [
        {
          "client_id": "1052719745266-ocrc1f696lcob6c6cuog9kjo1qo1v8vm.apps.googleusercontent.com",
          "client_type": 1,
          "android_info": {
            "package_name": "vn.com.nat.track_location_android",
            "certificate_hash": "63a868f508450b3279ac4d23d40e5a60a2cf9788"
          }
        },
        {
          "client_id": "1052719745266-nc1fug79kotjm4t012bkjaf7407i14dh.apps.googleusercontent.com",
          "client_type": 3
        }
      ],
      "api_key": [
        {
          "current_key": "AIzaSyAsUUGGCngadiMPeH2tCcqry4VFYU50LQ8"
        }
      ],
      "services": {
        "appinvite_service": {
          "other_platform_oauth_client": [
            {
              "client_id": "1052719745266-nc1fug79kotjm4t012bkjaf7407i14dh.apps.googleusercontent.com",
              "client_type": 3
            }
          ]
        }
      }
    }
  ],
  "configuration_version": "1"
}